<?xml version="1.0" standalone="no"?>
<!DOCTYPE svg PUBLIC "-//W3C//DTD SVG 1.1//EN" "http://www.w3.org/Graphics/SVG/1.1/DTD/svg11.dtd" >
<!--
2017-8-3: Created with FontForge (http://fontforge.org)
-->
<svg xmlns="http://www.w3.org/2000/svg" xmlns:xlink="http://www.w3.org/1999/xlink" version="1.1">
<metadata>
Created by FontForge 20160405 at Thu Aug  3 23:04:26 2017
 By Apache
Copyright (c) 2017, Apache
</metadata>
<defs>
<font id="Flaticon" horiz-adv-x="200" >
  <font-face 
    font-family="Flaticon"
    font-weight="400"
    font-stretch="normal"
    units-per-em="512"
    panose-1="2 0 5 3 0 0 0 0 0 0"
    ascent="448"
    descent="-64"
    bbox="0 -64 512 448"
    underline-thickness="25.6"
    underline-position="-51.2"
    unicode-range="U+0020-F100"
  />
    <missing-glyph />
    <glyph glyph-name="space" unicode=" " 
 />
    <glyph glyph-name="uniF100" unicode="&#xf100;" horiz-adv-x="512" 
d="M512 198.594c0 -137.745 -112.521 -249.407 -251.347 -249.407c-44.0713 0 -85.4756 11.2646 -121.497 31.0332l-139.156 -44.2197l45.3691 133.814c-22.8867 37.5801 -36.0674 81.6582 -36.0674 128.779c0 137.745 112.531 249.406 251.352 249.406
c138.838 0 251.347 -111.661 251.347 -249.406zM260.653 408.28c-116.531 0 -211.319 -94.0654 -211.319 -209.687c0 -45.8809 14.9561 -88.3711 40.2549 -122.938l-26.4023 -77.875l81.209 25.8105c33.3652 -21.9082 73.335 -34.6855 116.264 -34.6855
c116.514 0 211.319 94.0547 211.319 209.676s-94.7998 209.698 -211.325 209.698zM387.578 141.152c1.53027 -2.54785 1.53027 -14.7852 -3.58984 -29.0752c-5.15332 -14.2686 -30.3105 -28.0352 -41.5967 -29.0537c-11.2979 -1.02344 -11.2979 -9.1875 -73.9385 15.2803
c-62.6348 24.4795 -102.167 88.2178 -105.244 92.291c-3.08984 4.07324 -25.1562 33.1377 -25.1562 63.2207c0 30.0771 15.9111 44.8682 21.5547 50.9893c5.64941 6.11621 12.3281 7.64648 16.4355 7.64648s8.21973 -0.512695 11.8096 -0.512695
c3.60156 0 8.72656 2.03711 13.8584 -10.1943c5.13184 -12.2422 17.4648 -42.3252 19.001 -45.3799c1.54688 -3.06641 2.57715 -6.63379 0.511719 -10.7119c-2.04199 -4.08496 -3.06641 -6.62793 -6.15527 -10.2002c-3.07715 -3.56738 -6.46777 -7.96484 -9.24414 -10.707
c-3.07812 -3.04297 -6.29199 -6.34863 -2.70215 -12.4639c3.59473 -6.12695 15.9629 -26.1299 34.2754 -42.3311c23.5352 -20.8213 43.3838 -27.2842 49.5391 -30.3389c6.16602 -3.06055 9.75586 -2.54883 13.3516 1.54102c3.60059 4.0791 15.4111 17.8408 19.5127 23.9619
c4.10156 6.11523 8.2207 5.0918 13.8691 3.05469c5.63281 -2.03027 35.9316 -16.8271 42.0986 -19.8828c6.15527 -3.05469 10.2568 -4.59082 11.8096 -7.13379z" />
  </font>
</defs></svg>
